-------------------------------------------------------------------------------
Test set: com.antoonvereecken.tddbyexample.MoneyTest
-------------------------------------------------------------------------------
Tests run: 4, Failures: 0, Errors: 0, Skipped: 0, Time elapsed: 0.018 s - in com.antoonvereecken.tddbyexample.MoneyTest
